{
	"Parameters"	:	{
		"ThingName"	:	{
			"Type"	:	"String"
		},
		"ThingType"	:	{
			"Type"	:	"String"
		},
		"ThingGroup":	{
			"Type"	:	"String"
		},
		"CertificateId"	:	{
			"Type"	:	"String"
		}
	},
	"Resources"	:	{
		"thing"	:	{
			"Type"	:	"AWS::IoT::Thing",
			"Properties"	:	{
				"ThingName"	:	{"Ref":"ThingName"},
				"AttributePayload"	:	{
					"model"				:	"luma",
					"hardware_version"	:	"0",
					"serialNumber"		:	{"Ref":"ThingName"}
				},
				"ThingTypeName"	:	 {"Ref":"ThingType"},
				"ThingGroups"	:	[
					{"Ref":"ThingGroup"}
				]
			},
			"OverrideSettings"	:	{
				"AttributePayload"	:	"REPLACE",
				"ThingGroups"		:	"REPLACE",
				"ThingTypeName"		:	"REPLACE"
			}
		},
		"certificate"	:	{
			"Type"	:	"AWS::IoT::Certificate",
			"Properties"	:	{
				"CertificateId"	:	{"Ref":"CertificateId"}
			}
		},
		"policy"	:	{
			"Type"	:	"AWS::IoT::Policy",
			"Properties"	:	{
				"PolicyName"	:	"UniversalThingPolicy"
			}
		}
	}   
}